…
``` r
distinct(df_psaap, W)
```

    ## # A tibble: 35 × 1
    ##         W
    ##     <dbl>
    ##  1 0.0342
    ##  2 0.0464
    ##  3 0.0398
    ##  4 0.0325
    ##  5 0.0441
    ##  6 0.0379
    ##  7 0.0360
    ##  8 0.0488
    ##  9 0.0419
    ## 10 0.0336
    ## # ℹ 25 more rows
…
